<?xml version="1.0" encoding="UTF-8"?>
<!DOCTYPE svg PUBLIC "-//W3C//DTD SVG 1.1//EN" "http://www.w3.org/Graphics/SVG/1.1/DTD/svg11.dtd">
<!-- Creator: CorelDRAW X8 -->
<svg xmlns="http://www.w3.org/2000/svg" xml:space="preserve" width="23.222mm" height="28.5189mm" version="1.1" style="shape-rendering:geometricPrecision; text-rendering:geometricPrecision; image-rendering:optimizeQuality; fill-rule:evenodd; clip-rule:evenodd"
viewBox="0 0 87 107"
 xmlns:xlink="http://www.w3.org/1999/xlink">
 <defs>
  <style type="text/css">
   <![CDATA[
    .fil0 {fill:#000}
   ]]>
  </style>
 </defs>
 <g id="Layer_x0020_1">
  <metadata id="CorelCorpID_0Corel-Layer"/>
  <g id="_2584309206608">
   <path class="fil0" d="M73 57c0,-14 11,-20 12,-20 -7,-10 -17,-11 -20,-11 -8,-1 -16,5 -21,5 -4,0 -10,-5 -17,-5 -9,0 -18,5 -23,14 -9,16 -2,40 7,54 5,6 10,13 17,13 7,0 10,-4 18,-4 8,0 10,4 17,4 8,0 12,-7 17,-13 5,-8 7,-15 7,-15 0,0 -14,-6 -14,-22zm-14 -40c4,-4 7,-11 6,-17 -5,0 -12,4 -16,8 -3,4 -6,11 -5,17 6,0 12,-3 15,-8z"/>
  </g>
 </g>
</svg>
