<?xml version="1.0" encoding="UTF-8"?>
<!DOCTYPE svg PUBLIC "-//W3C//DTD SVG 1.1//EN" "http://www.w3.org/Graphics/SVG/1.1/DTD/svg11.dtd">
<!-- Creator: CorelDRAW X8 -->
<svg xmlns="http://www.w3.org/2000/svg" xml:space="preserve" width="137.584mm" height="21.1441mm" version="1.1" style="shape-rendering:geometricPrecision; text-rendering:geometricPrecision; image-rendering:optimizeQuality; fill-rule:evenodd; clip-rule:evenodd"
viewBox="0 0 2049 315"
 xmlns:xlink="http://www.w3.org/1999/xlink">
 <defs>
  <style type="text/css">
   <![CDATA[
    .fil0 {fill:#8B8B8B}
   ]]>
  </style>
 </defs>
 <g id="Layer_x0020_1">
  <metadata id="CorelCorpID_0Corel-Layer"/>
  <g id="_2549711573312">
   <polygon class="fil0" points="419,303 380,43 379,43 340,303 259,303 313,9 445,9 499,303 "/>
   <polygon class="fil0" points="808,303 806,48 805,48 757,303 681,303 634,48 633,48 631,303 556,303 562,9 683,9 718,228 720,228 755,9 876,9 883,303 "/>
   <path class="fil0" d="M1162 246c-8,57 -64,67 -103,67 -66,0 -107,-28 -107,-85l0 -23 80 0 0 29c0,16 11,25 28,25 15,0 24,-6 27,-18 2,-6 3,-15 0,-21 -15,-37 -118,-55 -130,-114 -3,-14 -3,-25 -1,-40 9,-53 60,-65 102,-65 37,0 64,8 80,25 13,12 19,28 19,49l0 21 -75 0 0 -18c0,-16 -10,-26 -26,-26 -14,0 -22,7 -25,19 -1,3 -1,9 0,15 8,33 119,52 131,112 1,8 3,25 0,48z"/>
   <path class="fil0" d="M1437 220c0,5 0,16 -1,19 -4,48 -39,73 -103,73 -63,0 -98,-25 -103,-73 0,-3 -1,-14 0,-19l0 -211 76 0 0 217c0,5 0,9 0,11 1,5 6,21 27,21 22,0 27,-16 28,-21 0,-2 0,-6 0,-11l0 -217 76 0 0 211z"/>
   <polygon class="fil0" points="1764,300 1659,300 1588,67 1587,67 1590,300 1517,300 1517,9 1627,9 1693,233 1694,233 1690,9 1764,9 "/>
   <path class="fil0" d="M112 0c35,1 60,9 76,24 12,13 18,29 18,50l0 22 -75 0 0 -19c0,-16 -9,-26 -26,-26 -14,0 -23,7 -26,19 0,4 -1,10 1,15 8,33 119,53 131,114 2,8 4,24 1,48 -7,49 -50,68 -105,68 -76,0 -107,-36 -107,-86l0 -24 80 0 0 30c0,16 12,25 29,25 15,0 24,-6 27,-19 2,-5 3,-14 0,-21 -15,-37 -119,-54 -132,-115 -3,-13 -3,-25 -1,-40 2,-7 4,-14 7,-20l0 -1c16,-31 53,-44 98,-44l4 0z"/>
   <path class="fil0" d="M1944 309c-52,0 -99,-20 -104,-73 -1,-10 -1,-14 -1,-19l0 -123c0,-6 1,-15 1,-20 6,-52 47,-73 104,-73 44,0 98,13 104,73 0,8 0,16 0,19l0 0 0 11 -76 0 0 -17 0 0c0,-1 0,-7 -1,-11 -1,-6 -6,-21 -28,-21 -21,0 -26,15 -28,21 -1,3 -1,8 -1,14l0 133c0,5 0,9 1,11 0,2 4,21 29,21 24,0 28,-19 28,-21 1,-3 1,-8 1,-11l0 -41 -30 0 0 -45 106 0 0 80c0,5 0,9 -1,19 -2,14 -6,26 -13,36 -17,25 -50,37 -91,37l0 0z"/>
  </g>
 </g>
</svg>
