<?xml version="1.0" encoding="UTF-8"?>
<!DOCTYPE svg PUBLIC "-//W3C//DTD SVG 1.1//EN" "http://www.w3.org/Graphics/SVG/1.1/DTD/svg11.dtd">
<!-- Creator: CorelDRAW X8 -->
<svg xmlns="http://www.w3.org/2000/svg" xml:space="preserve" width="22mm" height="28mm" version="1.1" style="shape-rendering:geometricPrecision; text-rendering:geometricPrecision; image-rendering:optimizeQuality; fill-rule:evenodd; clip-rule:evenodd"
viewBox="0 0 64 82"
 xmlns:xlink="http://www.w3.org/1999/xlink">
 <defs>
  <style type="text/css">
   <![CDATA[
    .fil0 {fill:#8B8B8B}
    .fil1 {fill:white}
   ]]>
  </style>
 </defs>
 <g id="Layer_x0020_1">
  <metadata id="CorelCorpID_0Corel-Layer"/>
  <rect class="fil0" width="64.2207" height="81.7354" rx="2" ry="5"/>
  <circle class="fil1" cx="9" cy="7" r="4"/>
  <rect class="fil1" x="20" width="2.57467" height="81.7354"/>
  <rect class="fil1" x="42" width="2.57467" height="81.7354"/>
  <rect class="fil1" transform="matrix(1.4865E-14 -0.714344 0.785714 2.64845E-14 1.36071E-06 21.3723)" width="3.60424" height="81.7354"/>
  <rect class="fil1" transform="matrix(1.4865E-14 -0.714344 0.785714 2.64845E-14 1.36071E-06 64.1045)" width="3.60424" height="81.7354"/>
  <rect class="fil1" transform="matrix(1.4865E-14 -0.714344 0.785714 2.64845E-14 1.36071E-06 41.5773)" width="3.60424" height="81.7354"/>
 </g>
</svg>
