<?xml version="1.0" encoding="UTF-8"?>
<!DOCTYPE svg PUBLIC "-//W3C//DTD SVG 1.1//EN" "http://www.w3.org/Graphics/SVG/1.1/DTD/svg11.dtd">
<!-- Creator: CorelDRAW X8 -->
<svg xmlns="http://www.w3.org/2000/svg" xml:space="preserve" width="16mm" height="28mm" version="1.1" style="shape-rendering:geometricPrecision; text-rendering:geometricPrecision; image-rendering:optimizeQuality; fill-rule:evenodd; clip-rule:evenodd"
viewBox="0 0 48 83"
 xmlns:xlink="http://www.w3.org/1999/xlink">
 <defs>
  <style type="text/css">
   <![CDATA[
    .fil0 {fill:#8B8B8B}
    .fil1 {fill:white}
    .fil2 {fill:white;fill-rule:nonzero}
   ]]>
  </style>
 </defs>
 <g id="Layer_x0020_1">
  <metadata id="CorelCorpID_0Corel-Layer"/>
  <rect class="fil0" width="47.5419" height="83.1983" rx="2" ry="7"/>
  <circle class="fil1" cx="9" cy="7" r="4"/>
  <g id="_2904811269680">
   <path class="fil2" d="M21 34l0 4 -1 0c0,-1 0,-2 -1,-2 0,0 0,-1 -1,-1 0,0 -1,0 -1,0l-2 0 0 13c0,0 0,1 0,1 0,0 1,1 1,1 0,0 1,0 1,0l1 0 0 0 -9 0 0 0 0 0c1,0 1,0 2,0 0,0 0,-1 0,-1 0,0 0,-1 0,-1l0 -13 -1 0c-1,0 -2,0 -2,0 -1,1 -2,2 -2,3l0 0 0 -4 15 0zm11 5l0 3 0 0c0,0 0,-1 -1,-1 0,-1 0,-1 0,-1 -1,0 -1,0 -2,0l0 0 0 8c0,1 0,1 0,2 0,0 0,0 0,0 0,0 0,0 1,0l0 0 0 0 -6 0 0 0 1 0c0,0 0,0 1,0 0,0 0,0 0,0 0,-1 0,-1 0,-2l0 -8 -1 0c-1,0 -1,0 -2,0 0,1 0,1 0,2l-1 0 0 -3 10 0z"/>
   <g>
    <rect class="fil1" transform="matrix(2.64845E-14 1 -1 2.64845E-14 39.2743 33.1545)" width="17.7221" height="1.0483"/>
    <rect class="fil1" x="35" y="33" width="7.23944" height="1.0483"/>
    <rect class="fil1" x="35" y="50" width="7.23944" height="1.0483"/>
   </g>
  </g>
 </g>
</svg>
