<?xml version="1.0" encoding="UTF-8"?>
<!DOCTYPE svg PUBLIC "-//W3C//DTD SVG 1.1//EN" "http://www.w3.org/Graphics/SVG/1.1/DTD/svg11.dtd">
<!-- Creator: CorelDRAW X8 -->
<svg xmlns="http://www.w3.org/2000/svg" xml:space="preserve" width="16mm" height="28mm" version="1.1" style="shape-rendering:geometricPrecision; text-rendering:geometricPrecision; image-rendering:optimizeQuality; fill-rule:evenodd; clip-rule:evenodd"
viewBox="0 0 53 93"
 xmlns:xlink="http://www.w3.org/1999/xlink">
 <defs>
  <style type="text/css">
   <![CDATA[
    .fil0 {fill:#FCB0B0}
    .fil1 {fill:white}
    .fil2 {fill:white;fill-rule:nonzero}
   ]]>
  </style>
 </defs>
 <g id="Layer_x0020_1">
  <metadata id="CorelCorpID_0Corel-Layer"/>
  <rect class="fil0" width="53.3333" height="93.3333" rx="2" ry="8"/>
  <circle class="fil1" cx="11" cy="8" r="4"/>
  <g id="_2904751044768">
   <path class="fil2" d="M23 38l0 5 0 0c0,-1 -1,-2 -1,-3 -1,0 -1,-1 -2,-1 0,0 -1,0 -1,0l-2 0 0 14c0,1 0,2 0,2 0,0 1,1 1,1 0,0 1,0 1,0l1 0 0 1 -10 0 0 -1 1 0c0,0 1,0 1,0 0,0 0,-1 0,-1 1,0 1,-1 1,-2l0 -14 -2 0c-1,0 -2,0 -2,1 -1,0 -2,1 -2,3l0 0 0 -5 16 0zm13 6l0 3 0 0c0,0 -1,-1 -1,-1 0,-1 0,-1 -1,-1 0,0 0,0 -1,0l-1 0 0 9c0,1 0,1 0,2 0,0 0,0 1,0 0,0 0,0 0,0l1 0 0 1 -7 0 0 -1 1 0c0,0 0,0 1,0 0,0 0,0 0,0 0,-1 0,-1 0,-2l0 -9 -1 0c-1,0 -1,0 -2,0 0,1 -1,1 -1,2l0 0 0 -3 11 0z"/>
   <g>
    <rect class="fil1" transform="matrix(2.64845E-14 1 -1 2.64845E-14 44.0587 37.1933)" width="19.881" height="1.176"/>
    <rect class="fil1" x="39" y="37" width="8.12133" height="1.176"/>
    <rect class="fil1" x="39" y="56" width="8.12133" height="1.176"/>
   </g>
  </g>
 </g>
</svg>
